hello Peter
hello Peter
hello Peter
hello Peter
hello Peter
hello Peter
hello Peter
hello Peter
hello Peter
hello Peter
hello Peter
hello Peter
hello Peter
hello Peter
hello Peter
hello Peter
hello Peter
hello Peter
hello Peter
hello Peter
hello Peter
hello Peter
hello Peter
hello Peter
hello Peter
hello Peter
hello Peter
hello Peter
hello Peter
hello Peter
hello Peter
hello Peter
hello Peter
hello Peter
hello Peter
hello Peter
hello Peter
hello Peter
hello Peter
hello Peter
hello Peter
hello Peter
hello Peter
hello Peter
hello Peter
hello Peter
hello Peter
hello Peter
hello Peter
hello Peter
hello Peter
hello Peter
hello Peter
hello Peter
hello Peter
hello Peter
hello Peter
hello Peter
hello Peter
hello Peter
hello Peter
hello Peter
hello Peter
hello Peter
hello Peter
hello Peter
hello Peter
hello Peter
hello Peter
hello Peter
hello Peter
hello Peter
hello Peter
hello Peter
hello Peter
hello Peter
hello Peter
hello Peter
hello Peter
hello Peter
hello Peter
hello Peter
hello Peter
hello Peter
hello Peter
hello Peter
hello Peter
hello Peter
hello Peter
hello Peter
hello Peter
hello Peter
hello Peter
hello Peter
hello Peter
hello Peter
hello Peter
hello Peter
hello Peter
hello Peter
hello Peter
hello Peter
hello Peter
hello Peter
hello Peter
hello Peter
hello Peter
hello Peter
hello Peter
hello Peter
