20210601
all good..
20210801
all good..
Finding files in /data/iop, modified on or after 20210801 thru 20211227.
START_DATE=20210801
END_DATE=20211227
Creating /apps/syseng/proj/ioparchive/jobs/20210801_to_20211227...
Successful! Find files in /data/iop...
Started on Mon Dec 27 11:22:26 EST 2021...
+ sed 's/\/data\///g'
+ /usr/bin/find /data/iop -type f -newermt 20210801
+ set +x
Completed on Mon Dec 27 13:33:31 EST 2021
Create anl and ornl directories, and copy master file....
wow: line 56: data: command not found
Done on 
